442-laser/data/20251118_224854.csv

Channel              :,CH3
Frequency            :,301.2Hz
Period               :,3.320ms
PK-PK                :,576.0mV
Average              :,1.130V
Vertical pos         :,10.000004mV
Probe attenuation    :,10X
Voltage per ADC value:,0.015625mV
Time interval        :,0.20000uS

index,CH3_Voltage(mV)
1,1298.000000
2,1298.000000
3,1298.000000
4,1298.000000
5,1298.000000
6,1298.000000
7,1298.000000
8,1298.000000
9,1302.000000
10,1298.000000
11,1302.000000
12,1298.000000
13,1302.000000
14,1298.000000
15,1302.000000
16,1298.000000
17,1302.000000
18,1298.000000
19,1302.000000
20,1302.000000
21,1302.000000
22,1302.000000
23,1302.000000
24,1302.000000
25,1302.000000
26,1302.000000
27,1302.000000
28,1302.000000
29,1302.000000
30,1302.000000
31,1302.000000
32,1306.000000
33,1302.000000
34,1306.000000
35,1306.000000
36,1306.000000
37,1306.000000
38,1306.000000
39,1306.000000
40,1306.000000
41,1306.000000
42,1306.000000
43,1306.000000
44,1306.000000
45,1306.000000
46,1306.000000
47,1310.000000
48,1306.000000
49,1310.000000
50,1306.000000
51,1310.000000
52,1306.000000
53,1310.000000
54,1310.000000
55,1310.000000
56,1306.000000
57,1310.000000
58,1310.000000
59,1310.000000
60,1310.000000
61,1310.000000
62,1310.000000
63,1310.000000
64,1310.000000
65,1310.000000
66,1310.000000
67,1310.000000
68,1310.000000
69,1310.000000
70,1314.000000
71,1310.000000
72,1314.000000
73,1314.000000
74,1314.000000
75,1314.000000
76,1314.000000
77,1314.000000
78,1314.000000
79,1310.000000
80,1314.000000
81,1314.000000
82,1314.000000
83,1314.000000
84,1318.000000
85,1314.000000
86,1314.000000
87,1314.000000
88,1314.000000
89,1318.000000
90,1314.000000
91,1314.000000
92,1314.000000
93,1314.000000
94,1318.000000
95,1314.000000
96,1318.000000
97,1318.000000
98,1314.000000
99,1318.000000
100,1318.000000
101,1318.000000
102,1314.000000
103,1318.000000
104,1318.000000
105,1318.000000
106,1318.000000
107,1318.000000
108,1318.000000
109,1322.000000
110,1318.000000
111,1322.000000
112,1318.000000
113,1318.000000
114,1318.000000
115,1318.000000
116,1322.000000
117,1318.000000
118,1322.000000
119,1322.000000
120,1322.000000
121,1322.000000
122,1322.000000
123,1322.000000
124,1322.000000
125,1322.000000
126,1322.000000
127,1322.000000
128,1322.000000
129,1322.000000
130,1322.000000
131,1322.000000
132,1322.000000
133,1322.000000
134,1322.000000
135,1322.000000
136,1326.000000
137,1322.000000
138,1326.000000
139,1326.000000
140,1322.000000
141,1326.000000
142,1322.000000
143,1326.000000
144,1326.000000
145,1326.000000
146,1326.000000
147,1326.000000
148,1326.000000
149,1326.000000
150,1322.000000
151,1326.000000
152,1326.000000
153,1326.000000
154,1326.000000
155,1326.000000
156,1326.000000
157,1326.000000
158,1330.000000
159,1330.000000
160,1326.000000
161,1330.000000
162,1330.000000
163,1326.000000
164,1330.000000
165,1326.000000
166,1330.000000
167,1330.000000
168,1330.000000
169,1330.000000
170,1330.000000
171,1330.000000
172,1334.000000
173,1330.000000
174,1330.000000
175,1330.000000
176,1330.000000
177,1330.000000
178,1330.000000
179,1330.000000
180,1330.000000
181,1334.000000
182,1330.000000
183,1330.000000
184,1334.000000
185,1334.000000
186,1334.000000
187,1334.000000
188,1330.000000
189,1334.000000
190,1330.000000
191,1334.000000
192,1330.000000
193,1334.000000
194,1334.000000
195,1334.000000
196,1334.000000
197,1334.000000
198,1334.000000
199,1334.000000
200,1334.000000
201,1334.000000
202,1334.000000
203,1334.000000
204,1334.000000
205,1330.000000
206,1334.000000
207,1334.000000
208,1334.000000
209,1334.000000
210,1334.000000
211,1334.000000
212,1334.000000
213,1334.000000
214,1338.000000
215,1334.000000
216,1334.000000
217,1334.000000
218,1334.000000
219,1334.000000
220,1334.000000
221,1338.000000
222,1338.000000
223,1338.000000
224,1338.000000
225,1338.000000
226,1338.000000
227,1338.000000
228,1338.000000
229,1338.000000
230,1334.000000
231,1338.000000
232,1334.000000
233,1338.000000
234,1338.000000
235,1338.000000
236,1338.000000
237,1338.000000
238,1338.000000
239,1338.000000
240,1334.000000
241,1338.000000
242,1338.000000
243,1338.000000
244,1338.000000
245,1338.000000
246,1338.000000
247,1338.000000
248,1338.000000
249,1342.000000
250,1338.000000
251,1338.000000
252,1342.000000
253,1338.000000
254,1338.000000
255,1338.000000
256,1342.000000
257,1338.000000
258,1338.000000
259,1338.000000
260,1338.000000
261,1338.000000
262,1338.000000
263,1342.000000
264,1342.000000
265,1342.000000
266,1342.000000
267,1342.000000
268,1342.000000
269,1342.000000
270,1338.000000
271,1342.000000
272,1342.000000
273,1342.000000
274,1338.000000
275,1342.000000
276,1342.000000
277,1342.000000
278,1342.000000
279,1346.000000
280,1342.000000
281,1342.000000
282,1338.000000
283,1342.000000
284,1342.000000
285,1342.000000
286,1342.000000
287,1342.000000
288,1342.000000
289,1342.000000
290,1342.000000
291,1342.000000
292,1346.000000
293,1342.000000
294,1346.000000
295,1342.000000
296,1342.000000
297,1342.000000
298,1342.000000
299,1342.000000
300,1342.000000
301,1342.000000
302,1346.000000
303,1342.000000
304,1346.000000
305,1342.000000
306,1346.000000
307,1342.000000
308,1346.000000
309,1346.000000
310,1342.000000
311,1346.000000
312,1342.000000
313,1346.000000
314,1346.000000
315,1346.000000
316,1342.000000
317,1346.000000
318,1346.000000
319,1346.000000
320,1342.000000
321,1346.000000
322,1346.000000
323,1346.000000
324,1346.000000
325,1346.000000
326,1346.000000
327,1346.000000
328,1346.000000
329,1346.000000
330,1346.000000
331,1346.000000
332,1346.000000
333,1346.000000
334,1346.000000
335,1346.000000
336,1350.000000
337,1346.000000
338,1346.000000
339,1346.000000
340,1346.000000
341,1346.000000
342,1350.000000
343,1346.000000
344,1350.000000
345,1346.000000
346,1350.000000
347,1346.000000
348,1346.000000
349,1346.000000
350,1346.000000
351,1346.000000
352,1346.000000
353,1346.000000
354,1346.000000
355,1346.000000
356,1346.000000
357,1350.000000
358,1346.000000
359,1350.000000
360,1346.000000
361,1350.000000
362,1346.000000
363,1346.000000
364,1346.000000
365,1346.000000
366,1346.000000
367,1346.000000
368,1350.000000
369,1350.000000
370,1346.000000
371,1350.000000
372,1346.000000
373,1346.000000
374,1346.000000
375,1346.000000
376,1350.000000
377,1346.000000
378,1350.000000
379,1346.000000
380,1346.000000
381,1350.000000
382,1350.000000
383,1350.000000
384,1350.000000
385,1346.000000
386,1350.000000
387,1346.000000
388,1350.000000
389,1346.000000
390,1350.000000
391,1350.000000
392,1346.000000
393,1350.000000
394,1350.000000
395,1346.000000
396,1350.000000
397,1346.000000
398,1350.000000
399,1346.000000
400,1346.000000
401,1350.000000
402,1346.000000
403,1350.000000
404,1346.000000
405,1346.000000
406,1350.000000
407,1350.000000
408,1350.000000
409,1350.000000
410,1346.000000
411,1350.000000
412,1346.000000
413,1350.000000
414,1346.000000
415,1346.000000
416,1350.000000
417,1346.000000
418,1346.000000
419,1350.000000
420,1350.000000
421,1350.000000
422,1346.000000
423,1346.000000
424,1350.000000
425,1346.000000
426,1350.000000
427,1346.000000
428,1350.000000
429,1346.000000
430,1350.000000
431,1346.000000
432,1350.000000
433,1350.000000
434,1350.000000
435,1346.000000
436,1350.000000
437,1346.000000
438,1350.000000
439,1346.000000
440,1350.000000
441,1350.000000
442,1346.000000
443,1346.000000
444,1346.000000
445,1350.000000
446,1350.000000
447,1350.000000
448,1350.000000
449,1346.000000
450,1346.000000
451,1350.000000
452,1346.000000
453,1350.000000
454,1346.000000
455,1350.000000
456,1350.000000
457,1346.000000
458,1350.000000
459,1350.000000
460,1346.000000
461,1350.000000
462,1346.000000
463,1350.000000
464,1346.000000
465,1350.000000
466,1350.000000
467,1346.000000
468,1350.000000
469,1350.000000
470,1350.000000
471,1350.000000
472,1346.000000
473,1350.000000
474,1350.000000
475,1346.000000
476,1350.000000
477,1346.000000
478,1350.000000
479,1346.000000
480,1350.000000
481,1350.000000
482,1350.000000
483,1350.000000
484,1350.000000
485,1346.000000
486,1350.000000
487,1346.000000
488,1350.000000
489,1346.000000
490,1346.000000
491,1350.000000
492,1346.000000
493,1350.000000
494,1350.000000
495,1350.000000
496,1350.000000
497,1350.000000
498,1350.000000
499,1350.000000
500,1346.000000
501,1350.000000
502,1346.000000
503,1350.000000
504,1346.000000
505,1350.000000
506,1350.000000
507,1350.000000
508,1350.000000
509,1350.000000
510,1346.000000
511,1350.000000
512,1346.000000
513,1346.000000
514,1346.000000
515,1346.000000
516,1350.000000
517,1346.000000
518,1350.000000
519,1346.000000
520,1350.000000
521,1346.000000
522,1350.000000
523,1346.000000
524,1350.000000
525,1346.000000
526,1350.000000
527,1346.000000
528,1350.000000
529,1346.000000
530,1350.000000
531,1346.000000
532,1350.000000
533,1350.000000
534,1346.000000
535,1346.000000
536,1346.000000
537,1346.000000
538,1350.000000
539,1346.000000
540,1346.000000
541,1350.000000
542,1346.000000
543,1350.000000
544,1346.000000
545,1350.000000
546,1346.000000
547,1346.000000
548,1346.000000
549,1346.000000
550,1346.000000
551,1346.000000
552,1346.000000
553,1350.000000
554,1346.000000
555,1350.000000
556,1346.000000
557,1346.000000
558,1350.000000
559,1346.000000
560,1346.000000
561,1346.000000
562,1346.000000
563,1346.000000
564,1346.000000
565,1342.000000
566,1346.000000
567,1346.000000
568,1350.000000
569,1346.000000
570,1346.000000
571,1346.000000
572,1346.000000
573,1346.000000
574,1346.000000
575,1346.000000
576,1346.000000
577,1346.000000
578,1346.000000
579,1346.000000
580,1346.000000
581,1346.000000
582,1346.000000
583,1346.000000
584,1342.000000
585,1346.000000
586,1342.000000
587,1346.000000
588,1346.000000
589,1346.000000
590,1342.000000
591,1346.000000
592,1342.000000
593,1346.000000
594,1346.000000
595,1346.000000
596,1346.000000
597,1342.000000
598,1346.000000
599,1342.000000
600,1342.000000
601,1346.000000
602,1346.000000
603,1346.000000
604,1346.000000
605,1342.000000
606,1346.000000
607,1346.000000
608,1346.000000
609,1342.000000
610,1346.000000
611,1342.000000
612,1346.000000
613,1342.000000
614,1342.000000
615,1342.000000
616,1346.000000
617,1342.000000
618,1346.000000
619,1342.000000
620,1346.000000
621,1346.000000
622,1342.000000
623,1342.000000
624,1342.000000
625,1342.000000
626,1342.000000
627,1342.000000
628,1346.000000
629,1342.000000
630,1346.000000
631,1346.000000
632,1342.000000
633,1346.000000
634,1342.000000
635,1346.000000
636,1342.000000
637,1342.000000
638,1342.000000
639,1342.000000
640,1342.000000
641,1342.000000
642,1342.000000
643,1346.000000
644,1346.000000
645,1346.000000
646,1346.000000
647,1342.000000
648,1342.000000
649,1342.000000
650,1342.000000
651,1342.000000
652,1342.000000
653,1342.000000
654,1342.000000
655,1342.000000
656,1346.000000
657,1342.000000
658,1346.000000
659,1342.000000
660,1346.000000
661,1342.000000
662,1342.000000
663,1342.000000
664,1342.000000
665,1342.000000
666,1342.000000
667,1342.000000
668,1342.000000
669,1342.000000
670,1342.000000
671,1342.000000
672,1342.000000
673,1342.000000
674,1342.000000
675,1342.000000
676,1342.000000
677,1342.000000
678,1342.000000
679,1342.000000
680,1342.000000
681,1342.000000
682,1342.000000
683,1346.000000
684,1342.000000
685,1342.000000
686,1342.000000
687,1342.000000
688,1342.000000
689,1338.000000
690,1342.000000
691,1342.000000
692,1338.000000
693,1342.000000
694,1342.000000
695,1342.000000
696,1342.000000
697,1342.000000
698,1342.000000
699,1338.000000
700,1342.000000
701,1338.000000
702,1342.000000
703,1338.000000
704,1338.000000
705,1338.000000
706,1342.000000
707,1338.000000
708,1342.000000
709,1338.000000
710,1342.000000
711,1342.000000
712,1342.000000
713,1342.000000
714,1338.000000
715,1338.000000
716,1338.000000
717,1338.000000
718,1338.000000
719,1338.000000
720,1342.000000
721,1342.000000
722,1338.000000
723,1342.000000
724,1338.000000
725,1338.000000
726,1338.000000
727,1338.000000
728,1338.000000
729,1338.000000
730,1338.000000
731,1338.000000
732,1338.000000
733,1342.000000
734,1338.000000
735,1338.000000
736,1338.000000
737,1338.000000
738,1338.000000
739,1338.000000
740,1338.000000
741,1338.000000
742,1338.000000
743,1338.000000
744,1338.000000
745,1338.000000
746,1338.000000
747,1338.000000
748,1342.000000
749,1338.000000
750,1338.000000
751,1338.000000
752,1338.000000
753,1338.000000
754,1338.000000
755,1338.000000
756,1338.000000
757,1338.000000
758,1338.000000
759,1338.000000
760,1338.000000
761,1338.000000
762,1338.000000
763,1338.000000
764,1338.000000
765,1338.000000
766,1334.000000
767,1338.000000
768,1338.000000
769,1338.000000
770,1338.000000
771,1338.000000
772,1338.000000
773,1338.000000
774,1338.000000
775,1338.000000
776,1338.000000
777,1338.000000
778,1338.000000
779,1338.000000
780,1338.000000
781,1338.000000
782,1338.000000
783,1338.000000
784,1338.000000
785,1338.000000
786,1338.000000
787,1338.000000
788,1338.000000
789,1338.000000
790,1338.000000
791,1338.000000
792,1338.000000
793,1338.000000
794,1338.000000
795,1338.000000
796,1338.000000
797,1338.000000
798,1338.000000
799,1338.000000
800,1338.000000
801,1338.000000
802,1338.000000
803,1338.000000
804,1338.000000
805,1338.000000
806,1338.000000
807,1338.000000
808,1338.000000
809,1338.000000
810,1338.000000
811,1338.000000
812,1338.000000
813,1338.000000
814,1338.000000
815,1338.000000
816,1338.000000
817,1338.000000
818,1338.000000
819,1338.000000
820,1338.000000
821,1338.000000
822,1338.000000
823,1338.000000
824,1338.000000
825,1338.000000
826,1338.000000
827,1338.000000
828,1342.000000
829,1338.000000
830,1338.000000
831,1338.000000
832,1338.000000
833,1338.000000
834,1338.000000
835,1338.000000
836,1334.000000
837,1338.000000
838,1338.000000
839,1338.000000
840,1338.000000
841,1338.000000
842,1338.000000
843,1338.000000
844,1334.000000
845,1338.000000
846,1338.000000
847,1338.000000
848,1338.000000
849,1338.000000
850,1338.000000
851,1338.000000
852,1338.000000
853,1338.000000
854,1338.000000
855,1338.000000
856,1338.000000
857,1338.000000
858,1338.000000
859,1334.000000
860,1338.000000
861,1334.000000
862,1338.000000
863,1338.000000
864,1338.000000
865,1338.000000
866,1338.000000
867,1338.000000
868,1338.000000
869,1338.000000
870,1338.000000
871,1338.000000
872,1334.000000
873,1334.000000
874,1334.000000
875,1334.000000
876,1334.000000
877,1338.000000
878,1338.000000
879,1338.000000
880,1334.000000
881,1338.000000
882,1334.000000
883,1338.000000
884,1334.000000
885,1338.000000
886,1334.000000
887,1334.000000
888,1334.000000
889,1334.000000
890,1334.000000
891,1334.000000
892,1334.000000
893,1334.000000
894,1334.000000
895,1338.000000
896,1334.000000
897,1334.000000
898,1338.000000
899,1334.000000
900,1338.000000
901,1334.000000
902,1338.000000
903,1334.000000
904,1334.000000
905,1338.000000
906,1338.000000
907,1334.000000
908,1334.000000
909,1334.000000
910,1338.000000
911,1334.000000
912,1334.000000
913,1334.000000
914,1334.000000
915,1334.000000
916,1334.000000
917,1338.000000
918,1334.000000
919,1338.000000
920,1338.000000
921,1334.000000
922,1334.000000
923,1338.000000
924,1334.000000
925,1338.000000
926,1334.000000
927,1338.000000
928,1334.000000
929,1334.000000
930,1334.000000
931,1338.000000
932,1338.000000
933,1338.000000
934,1338.000000
935,1338.000000
936,1334.000000
937,1338.000000
938,1334.000000
939,1334.000000
940,1338.000000
941,1334.000000
942,1338.000000
943,1334.000000
944,1338.000000
945,1338.000000
946,1338.000000
947,1338.000000
948,1338.000000
949,1334.000000
950,1338.000000
951,1334.000000
952,1338.000000
953,1338.000000
954,1338.000000
955,1338.000000
956,1338.000000
957,1338.000000
958,1338.000000
959,1338.000000
960,1338.000000
961,1338.000000
962,1338.000000
963,1338.000000
964,1334.000000
965,1338.000000
966,1338.000000
967,1338.000000
968,1338.000000
969,1338.000000
970,1338.000000
971,1338.000000
972,1338.000000
973,1338.000000
974,1338.000000
975,1338.000000
976,1338.000000
977,1338.000000
978,1338.000000
979,1338.000000
980,1338.000000
981,1338.000000
982,1342.000000
983,1338.000000
984,1338.000000
985,1338.000000
986,1338.000000
987,1338.000000
988,1338.000000
989,1338.000000
990,1338.000000
991,1338.000000
992,1338.000000
993,1338.000000
994,1338.000000
995,1338.000000
996,1338.000000
997,1338.000000
998,1338.000000
999,1338.000000
1000,1338.000000
1001,1338.000000
1002,1338.000000
1003,1338.000000
1004,1338.000000
1005,1342.000000
1006,1338.000000
1007,1338.000000
1008,1338.000000
1009,1338.000000
1010,1338.000000
1011,1338.000000
1012,1338.000000
1013,1338.000000
1014,1338.000000
1015,1338.000000
1016,1338.000000
1017,1342.000000
1018,1338.000000
1019,1338.000000
1020,1338.000000
1021,1338.000000
1022,1342.000000
1023,1338.000000
1024,1338.000000
1025,1338.000000
1026,1338.000000
1027,1338.000000
1028,1342.000000
1029,1338.000000
1030,1342.000000
1031,1338.000000
1032,1342.000000
1033,1338.000000
1034,1338.000000
1035,1338.000000
1036,1338.000000
1037,1338.000000
1038,1338.000000
1039,1338.000000
1040,1338.000000
1041,1338.000000
1042,1338.000000
1043,1342.000000
1044,1342.000000
1045,1342.000000
1046,1338.000000
1047,1342.000000
1048,1338.000000
1049,1338.000000
1050,1338.000000
1051,1338.000000
1052,1338.000000
1053,1342.000000
1054,1338.000000
1055,1342.000000
1056,1338.000000
1057,1342.000000
1058,1342.000000
1059,1342.000000
1060,1338.000000
1061,1338.000000
1062,1338.000000
1063,1338.000000
1064,1338.000000
1065,1342.000000
1066,1338.000000
1067,1342.000000
1068,1342.000000
1069,1342.000000
1070,1342.000000
1071,1338.000000
1072,1342.000000
1073,1338.000000
1074,1342.000000
1075,1338.000000
1076,1342.000000
1077,1338.000000
1078,1342.000000
1079,1342.000000
1080,1342.000000
1081,1342.000000
1082,1342.000000
1083,1342.000000
1084,1342.000000
1085,1342.000000
1086,1342.000000
1087,1342.000000
1088,1342.000000
1089,1342.000000
1090,1342.000000
1091,1342.000000
1092,1342.000000
1093,1346.000000
1094,1342.000000
1095,1346.000000
1096,1338.000000
1097,1342.000000
1098,1342.000000
1099,1342.000000
1100,1342.000000
1101,1342.000000
1102,1342.000000
1103,1342.000000
1104,1346.000000
1105,1346.000000
1106,1342.000000
1107,1346.000000
1108,1346.000000
1109,1342.000000
1110,1346.000000
1111,1342.000000
1112,1346.000000
1113,1342.000000
1114,1346.000000
1115,1346.000000
1116,1346.000000
1117,1346.000000
1118,1346.000000
1119,1346.000000
1120,1346.000000
1121,1346.000000
1122,1346.000000
1123,1346.000000
1124,1346.000000
1125,1346.000000
1126,1346.000000
1127,1346.000000
1128,1346.000000
1129,1350.000000
1130,1346.000000
1131,1346.000000
1132,1346.000000
1133,1346.000000
1134,1346.000000
1135,1346.000000
1136,1346.000000
1137,1350.000000
1138,1346.000000
1139,1350.000000
1140,1346.000000
1141,1350.000000
1142,1350.000000
1143,1346.000000
1144,1350.000000
1145,1350.000000
1146,1346.000000
1147,1350.000000
1148,1346.000000
1149,1350.000000
1150,1346.000000
1151,1346.000000
1152,1350.000000
1153,1346.000000
1154,1350.000000
1155,1350.000000
1156,1350.000000
1157,1350.000000
1158,1346.000000
1159,1346.000000
1160,1350.000000
1161,1346.000000
1162,1350.000000
1163,1346.000000
1164,1350.000000
1165,1350.000000
1166,1350.000000
1167,1350.000000
1168,1350.000000
1169,1346.000000
1170,1350.000000
1171,1350.000000
1172,1350.000000
1173,1350.000000
1174,1350.000000
1175,1350.000000
1176,1350.000000
1177,1350.000000
1178,1350.000000
1179,1354.000000
1180,1350.000000
1181,1350.000000
1182,1350.000000
1183,1350.000000
1184,1350.000000
1185,1354.000000
1186,1350.000000
1187,1354.000000
1188,1350.000000
1189,1354.000000
1190,1354.000000
1191,1354.000000
1192,1354.000000
1193,1354.000000
1194,1350.000000
1195,1350.000000
1196,1350.000000
1197,1354.000000
1198,1350.000000
1199,1354.000000
1200,1354.000000
1201,1354.000000
1202,1354.000000
1203,1350.000000
1204,1354.000000
1205,1354.000000
1206,1354.000000
1207,1354.000000
1208,1354.000000
1209,1354.000000
1210,1354.000000
1211,1354.000000
1212,1354.000000
1213,1354.000000
1214,1358.000000
1215,1354.000000
1216,1354.000000
1217,1354.000000
1218,1354.000000
1219,1354.000000
1220,1354.000000
1221,1354.000000
1222,1354.000000
1223,1354.000000
